<svg width="1659" height="2000" viewBox="0 0 1659 2000" fill="none" xmlns="http://www.w3.org/2000/svg">
<path d="M1658.7 1103.48C1642.31 592.055 828.242 0 828.242 0C828.242 0 -15.2499 613.401 0.209948 1103.48C13.4211 1522.58 443.328 1671.85 716.246 1428.99L477.093 2000H1181.87L942.364 1428.68C1219.08 1665.51 1672.33 1528.43 1658.7 1103.48Z" fill="url(#paint0_linear_42_8)"/>
<defs>
<linearGradient id="paint0_linear_42_8" x1="829.5" y1="0" x2="829.5" y2="2000" gradientUnits="userSpaceOnUse">
<stop stop-color="#FFCE40"/>
<stop offset="1" stop-color="#B88F44"/>
</linearGradient>
</defs>
</svg>
