<svg width="190" height="190" viewBox="0 0 190 190" fill="none" xmlns="http://www.w3.org/2000/svg">
<path d="M40.4325 45.3188L44.8063 46.5234L41.5725 47.3138C39.9271 47.576 39.1861 48.2866 38.8859 49.2138L37.8789 57.342L36.6401 49.1948C36.4875 48.8155 36.2567 48.4726 35.9627 48.1885C35.6687 47.9043 35.3182 47.6853 34.9339 47.5456L30.7539 46.5234L35.1809 45.2694C35.5461 45.119 35.8769 44.8959 36.1532 44.6137C36.4295 44.3315 36.6456 43.9961 36.7883 43.6278L37.8903 34.4128L38.6807 43.4264C38.808 43.8551 39.0322 44.2488 39.3359 44.5769C39.6397 44.9051 40.0149 45.1589 40.4325 45.3188Z" fill="#EBEBEB"/>
<path d="M46.6914 57.6461L48.2608 58.0793L47.1208 58.3643C46.528 58.4593 46.2658 58.7101 46.1556 59.0407L45.7756 61.9591L45.331 59.0369C45.2768 58.9008 45.1942 58.7779 45.0887 58.6764C44.9832 58.5748 44.8572 58.4969 44.7192 58.4479L43.1992 58.0679L44.7876 57.6195C44.9179 57.5648 45.0358 57.4845 45.1344 57.3833C45.233 57.2821 45.3102 57.1621 45.3614 57.0305L45.7414 53.7283L46.0264 56.9583C46.0739 57.1179 46.1592 57.2637 46.2749 57.3834C46.3906 57.5031 46.5335 57.5932 46.6914 57.6461V57.6461Z" fill="#EBEBEB"/>
<path d="M17.1351 70.2498L4.74902 112.118L57.119 127.611L69.5051 85.7427L17.1351 70.2498Z" fill="#FAFAFA"/>
<path d="M69.5061 85.7509C69.5061 85.7509 69.4187 85.7508 69.2515 85.6824L68.5143 85.4734L65.6643 84.6488L54.9331 81.5138L17.1003 70.3913L17.2789 70.2963C13.5967 82.7603 9.37493 97.0483 4.90613 112.165L4.79973 111.971L57.1599 127.49L56.9965 127.577C60.7547 114.98 63.8707 104.538 66.0481 97.2306L68.5903 88.7567C68.8867 87.7788 69.1122 87.0327 69.2667 86.5184C69.4225 86.013 69.5099 85.7584 69.5099 85.7584C69.5099 85.7584 69.4453 86.013 69.3047 86.5184C69.1641 87.0238 68.9247 87.7725 68.6625 88.7415L66.1925 97.2079C64.0417 104.542 60.9637 115.026 57.2511 127.672L57.2131 127.798L57.0877 127.76L4.70473 112.279L4.55273 112.233L4.59833 112.081C9.07853 96.9609 13.3003 82.6767 17.0015 70.2165L17.0433 70.0797L17.1763 70.1215L55.0585 81.4037L65.7403 84.6033L68.5561 85.4506L69.2705 85.6749L69.5061 85.7509Z" fill="#E0E0E0"/>
<path d="M18.1603 73.4203L7.33301 110.02L56.0263 124.425L66.8536 87.8255L18.1603 73.4203Z" fill="#EBEBEB"/>
<path d="M7.33398 110.025L31.0726 92.3058L37.3958 109.657L46.7932 104.162L56.0272 124.431L7.33398 110.025Z" fill="#E0E0E0"/>
<path d="M46.9037 93.9588C46.6797 94.7171 46.2359 95.3918 45.6284 95.8978C45.0209 96.4038 44.277 96.7184 43.4908 96.8016C42.7045 96.8848 41.9113 96.7331 41.2113 96.3655C40.5113 95.9979 39.936 95.431 39.5582 94.7365C39.1804 94.042 39.017 93.2511 39.0887 92.4637C39.1604 91.6763 39.464 90.9279 39.961 90.3131C40.4581 89.6982 41.1263 89.2446 41.8811 89.0094C42.636 88.7743 43.4436 88.7684 44.2019 88.9922C44.7054 89.1409 45.1747 89.3873 45.583 89.7174C45.9913 90.0474 46.3306 90.4547 46.5815 90.9159C46.8324 91.3771 46.99 91.8832 47.0453 92.4053C47.1005 92.9274 47.0524 93.4553 46.9037 93.9588V93.9588Z" fill="#E0E0E0"/>
<path d="M113.329 104.648L108.951 150.793L166.669 156.269L171.047 110.124L113.329 104.648Z" fill="#FAFAFA"/>
<path d="M171.031 110.113H170.753L169.94 110.044L166.82 109.744L154.983 108.68L113.301 104.804L113.464 104.671C112.169 118.404 110.679 134.148 109.11 150.811L108.961 150.628L166.676 156.127L166.524 156.252C167.869 142.363 168.986 130.845 169.769 122.793C170.149 118.765 170.476 115.607 170.689 113.441C170.799 112.37 170.882 111.541 170.939 110.975C170.996 110.409 171.034 110.124 171.034 110.124C171.034 110.124 171.034 110.398 170.974 110.949C170.913 111.5 170.852 112.328 170.757 113.392C170.559 115.55 170.274 118.712 169.91 122.717C169.15 130.796 168.093 142.344 166.801 156.279V156.419H166.661L108.939 150.978H108.771V150.811C110.36 134.151 111.857 118.408 113.164 104.675V104.527H113.312L155.078 108.562L166.858 109.721L169.963 110.033L170.757 110.116C170.947 110.097 171.031 110.113 171.031 110.113Z" fill="#E0E0E0"/>
<path d="M115.044 107.741L111.217 148.076L164.879 153.167L168.706 112.833L115.044 107.741Z" fill="#EBEBEB"/>
<path d="M111.203 148.067L132.324 124.773L142.447 141.558L151.118 133.92L164.867 153.155L111.203 148.067Z" fill="#E0E0E0"/>
<path d="M149.154 123.268C149.075 124.104 148.75 124.898 148.22 125.549C147.69 126.2 146.978 126.679 146.176 126.926C145.373 127.173 144.515 127.176 143.711 126.935C142.907 126.695 142.192 126.221 141.657 125.573C141.122 124.926 140.791 124.135 140.705 123.3C140.62 122.464 140.785 121.622 141.178 120.881C141.572 120.139 142.176 119.53 142.915 119.132C143.655 118.734 144.495 118.564 145.331 118.644C146.451 118.75 147.483 119.298 148.2 120.165C148.917 121.032 149.26 122.148 149.154 123.268V123.268Z" fill="#E0E0E0"/>
<path d="M58.658 116.614L15.6992 127.087L24.0718 161.432L67.0306 150.96L58.658 116.614Z" fill="#FAFAFA"/>
<path d="M58.6536 116.622L58.4446 116.679L57.8442 116.831L55.5148 117.42L46.7406 119.586L15.7364 127.186L15.82 127.049C18.3128 137.271 21.1742 148.987 24.2028 161.386L24.047 161.295L66.9984 150.86L66.9186 150.989L60.9032 126.065C60.185 123.067 59.6188 120.711 59.2312 119.1C59.0412 118.298 58.8968 117.682 58.798 117.257C58.6992 116.831 58.6536 116.618 58.6536 116.618C58.6536 116.618 58.7106 116.823 58.8132 117.23C58.9158 117.637 59.0716 118.256 59.2692 119.046C59.6492 120.65 60.2458 122.991 60.9868 125.978L67.1276 150.94L67.1504 151.042L67.0478 151.069L24.1078 161.557L23.9824 161.587L23.952 161.462C20.9348 149.063 18.0848 137.343 15.592 127.118L15.5654 127.007L15.6756 126.981L46.7824 119.461L55.5604 117.352L57.8746 116.801L58.4674 116.664L58.6536 116.622Z" fill="#E0E0E0"/>
<path d="M57.6554 119.151L17.7129 128.888L25.0316 158.91L64.9741 149.174L57.6554 119.151Z" fill="#EBEBEB"/>
<path d="M25.0156 158.912L34.4206 136.853L45.908 146.422L50.2476 138.753L64.9574 149.18L25.0156 158.912Z" fill="#E0E0E0"/>
<path d="M46.1742 131.567C46.3258 132.189 46.2895 132.843 46.0699 133.444C45.8504 134.045 45.4574 134.568 44.9408 134.946C44.4241 135.324 43.807 135.541 43.1673 135.568C42.5277 135.596 41.8942 135.433 41.3471 135.1C40.8 134.768 40.3637 134.281 40.0935 133.7C39.8233 133.12 39.7312 132.472 39.829 131.84C39.9267 131.207 40.2098 130.617 40.6426 130.145C41.0753 129.674 41.6383 129.341 42.2602 129.189C42.6734 129.088 43.1025 129.069 43.5228 129.134C43.9432 129.199 44.3466 129.346 44.7101 129.567C45.0736 129.788 45.39 130.078 45.6412 130.422C45.8924 130.765 46.0736 131.154 46.1742 131.567V131.567Z" fill="#E0E0E0"/>
<path d="M164.754 34.6602L103.978 45.8148L112.896 94.407L173.673 83.2524L164.754 34.6602Z" fill="#FAFAFA"/>
<path d="M164.756 34.6561L164.464 34.7169L163.613 34.8841L160.314 35.5073L147.877 37.8367L104.006 45.9801L104.135 45.7939C106.795 60.2567 109.835 76.8323 113.073 94.3769L112.86 94.2401L173.66 83.1137L173.542 83.2885C170.882 68.6509 168.686 56.5175 167.147 48.0321C166.387 43.7875 165.786 40.4587 165.376 38.1749C165.174 37.0349 165.022 36.1723 164.916 35.5757C164.81 34.9791 164.768 34.6713 164.768 34.6713C164.768 34.6713 164.832 34.9601 164.943 35.5377C165.053 36.1153 165.22 36.9855 165.433 38.1065C165.858 40.3865 166.478 43.6887 167.272 47.9143C168.849 56.4149 171.11 68.5711 173.835 83.2543L173.861 83.3987L173.713 83.4253L112.932 94.5783L112.753 94.6125L112.723 94.4339C109.512 76.8893 106.472 60.3099 103.823 45.8471L103.797 45.6875L103.953 45.6571L147.957 37.6771L160.36 35.4237L163.632 34.8423L164.471 34.6979L164.756 34.6561Z" fill="#E0E0E0"/>
<path d="M163.145 38.1198L106.637 48.491L114.432 90.9648L170.94 80.5936L163.145 38.1198Z" fill="#EBEBEB"/>
<path d="M114.434 90.9606L129.322 60.9368L144.579 75.2096L151.252 64.8546L170.94 80.5866L114.434 90.9606Z" fill="#E0E0E0"/>
<path d="M146.145 54.5034C146.307 55.3839 146.204 56.2927 145.85 57.1147C145.495 57.9368 144.905 58.6352 144.153 59.1217C143.401 59.6081 142.523 59.8608 141.627 59.8476C140.732 59.8345 139.861 59.5562 139.124 59.0478C138.387 58.5395 137.817 57.8241 137.487 56.992C137.157 56.1599 137.081 55.2485 137.269 54.3731C137.456 53.4978 137.9 52.6978 138.542 52.0743C139.185 51.4509 139.997 51.032 140.878 50.8706C141.462 50.763 142.062 50.7717 142.643 50.8961C143.224 51.0205 143.775 51.2581 144.264 51.5955C144.754 51.9329 145.171 52.3634 145.494 52.8623C145.817 53.3613 146.038 53.9189 146.145 54.5034V54.5034Z" fill="#E0E0E0"/>
<path d="M130.45 28.6596L136.291 20.3338L126.798 24.4986L127.327 11.799L119.913 20.1172L113.787 10.1878L110.831 21.47L101.551 20.3908L107.707 30.153L97.2725 37.4262L110.265 34.428L110.683 44.7374L119.358 37.7796L128.467 45.429L127.365 35.3818L138.822 34.4622L130.45 28.6596Z" fill="white"/>
<path d="M130.451 28.6596C130.451 28.6596 130.629 28.7926 130.986 29.0396L132.59 30.1796L138.788 34.5192L138.814 34.4128L127.357 35.302H127.277V35.3856C127.6 38.3952 127.969 41.7886 128.364 45.4366L128.52 45.353L119.4 37.6922L119.332 37.6352L119.263 37.6922L110.584 44.6424L110.774 44.726C110.641 41.458 110.501 37.9848 110.36 34.4204V34.2836L110.227 34.3064C106.188 34.9828 101.582 36.5674 97.2309 37.3008L97.3183 37.525C100.358 35.587 103.953 32.6686 107.225 30.5938L107.757 30.2556L107.863 30.1872L107.795 30.0846L101.654 20.3262L101.536 20.5124L110.816 21.5916H110.922L110.949 21.489C111.962 17.6105 112.946 13.8485 113.901 10.203L113.689 10.2372L119.822 20.1628L119.898 20.2882L119.993 20.178L127.399 11.8522L127.228 11.7838C127.038 16.4768 126.871 20.7214 126.719 24.4834V24.6088L126.837 24.5594L136.337 20.3794L136.268 20.2958C134.368 23.0204 132.924 25.1104 131.936 26.5278L130.815 28.12C130.568 28.4772 130.435 28.6558 130.435 28.6558C130.435 28.6558 130.572 28.4734 130.815 28.1162L131.955 26.5278L136.321 20.3604L136.439 20.1932L136.249 20.2768L126.749 24.4188L126.859 24.4948C127.023 20.7366 127.205 16.492 127.407 11.799V11.5254L127.228 11.7306C124.905 14.3298 122.431 17.1 119.807 20.0412H119.978L113.886 10.127L113.746 9.8952L113.677 10.1574C112.72 13.7927 111.732 17.5535 110.713 21.4396L110.842 21.3484L101.567 20.2692L101.308 20.2388L101.445 20.4554C103.459 23.6474 105.511 26.9027 107.601 30.2214L107.643 30.0466L107.111 30.3848C103.839 32.4634 100.271 35.3818 97.2043 37.3198L96.6875 37.6504L97.2917 37.5478C101.639 36.8144 106.248 35.2298 110.284 34.5496L110.143 34.4356C110.292 38 110.436 41.4732 110.569 44.7412V44.9692L110.744 44.8248L119.411 37.8632H119.275C122.528 40.584 125.598 43.1604 128.395 45.505L128.577 45.657L128.551 45.4214C128.144 41.7734 127.768 38.3838 127.433 35.3742L127.361 35.4616L138.814 34.5192H138.978L138.841 34.428L132.643 30.153L131.017 29.0396L130.451 28.6596Z" fill="#263238"/>
<path d="M120.764 23.826L120.384 29.697C120.37 29.9292 120.271 30.148 120.106 30.3125C119.942 30.4769 119.723 30.5756 119.491 30.59C119.246 30.6052 119.005 30.5256 118.818 30.3678C118.63 30.2101 118.511 29.9862 118.484 29.7426L117.834 23.8412C117.825 23.7358 117.837 23.6296 117.871 23.5293C117.905 23.4291 117.959 23.337 118.031 23.259C118.103 23.181 118.19 23.1189 118.287 23.0765C118.384 23.0341 118.488 23.0124 118.594 23.0128H120.027C120.129 23.0156 120.23 23.0392 120.323 23.082C120.416 23.1249 120.5 23.1861 120.569 23.2621C120.638 23.3381 120.691 23.4272 120.724 23.5241C120.758 23.621 120.771 23.7237 120.764 23.826V23.826Z" fill="#D39B2C"/>
<path d="M117.941 33.8922C118.03 34.1609 118.197 34.3971 118.421 34.5708C118.645 34.7446 118.915 34.8481 119.198 34.8683C119.48 34.8885 119.762 34.8245 120.008 34.6844C120.255 34.5443 120.454 34.3344 120.581 34.0811C120.707 33.8279 120.756 33.5427 120.721 33.2616C120.686 32.9806 120.568 32.7162 120.383 32.502C120.198 32.2878 119.953 32.1333 119.68 32.0582C119.407 31.983 119.118 31.9904 118.849 32.0796C118.488 32.2002 118.191 32.4586 118.02 32.7983C117.85 33.1381 117.821 33.5314 117.941 33.8922V33.8922Z" fill="#D39B2C"/>
<path d="M88.2812 53.4052L86.2064 30.8826C86.1228 24.6012 82.4064 19.4142 76.1212 19.6726L75.5436 19.7296C72.733 20.01 70.1313 21.3389 68.2566 23.4516C66.3819 25.5643 65.372 28.3057 65.428 31.1296C65.5306 36.5712 65.713 42.5828 66.0398 45.4746C66.7086 51.4672 73.769 51.6724 73.769 51.6724L74.529 56.8974C74.529 56.8974 77.569 58.71 81.9884 57.931C86.7802 57.0798 88.2812 53.4052 88.2812 53.4052Z" fill="#FFBE9D"/>
<path d="M73.7578 51.6535C76.5442 51.3793 79.193 50.3095 81.3882 48.5717C81.3882 48.5717 80.0202 53.0709 73.982 53.1317L73.7578 51.6535Z" fill="url(#paint0_linear_319_4600)"/>
<path d="M68.2481 35.5832C68.273 35.803 68.3817 36.0046 68.5516 36.1462C68.7215 36.2878 68.9395 36.3583 69.1601 36.3432C69.27 36.3419 69.3785 36.3183 69.4792 36.274C69.5798 36.2296 69.6704 36.1654 69.7456 36.0853C69.8208 36.0051 69.8791 35.9105 69.9169 35.8073C69.9547 35.7041 69.9713 35.5942 69.9657 35.4844C69.9453 35.261 69.8387 35.0542 69.6684 34.9081C69.4982 34.7619 69.2776 34.6879 69.0537 34.7016C68.942 34.7039 68.832 34.7289 68.7303 34.775C68.6286 34.8211 68.5373 34.8874 68.462 34.9698C68.3866 35.0523 68.3288 35.1491 68.2921 35.2546C68.2553 35.36 68.2403 35.4718 68.2481 35.5832Z" fill="#263238"/>
<path d="M67.009 33.9226C67.1268 34.0252 67.7272 33.478 68.6506 33.3906C69.574 33.3032 70.2922 33.6946 70.3834 33.5692C70.4252 33.516 70.296 33.326 69.9806 33.1398C69.5552 32.9026 69.0663 32.8043 68.5822 32.8586C68.1024 32.9026 67.6494 33.0998 67.2902 33.421C67.028 33.668 66.952 33.877 67.009 33.9226Z" fill="#263238"/>
<path d="M76.7146 34.7586C76.734 34.9825 76.8403 35.1898 77.0108 35.3361C77.1813 35.4825 77.4024 35.5562 77.6266 35.5414C77.7364 35.5395 77.8446 35.5156 77.945 35.4711C78.0454 35.4266 78.1358 35.3624 78.2109 35.2823C78.286 35.2022 78.3443 35.1079 78.3823 35.0049C78.4203 34.9019 78.4373 34.7923 78.4322 34.6826C78.4137 34.4584 78.3077 34.2505 78.1369 34.1039C77.9662 33.9574 77.7446 33.884 77.5202 33.8998C77.4106 33.9022 77.3025 33.9265 77.2024 33.9712C77.1023 34.0159 77.0121 34.0801 76.9371 34.1601C76.862 34.24 76.8037 34.3341 76.7655 34.4369C76.7273 34.5397 76.71 34.6491 76.7146 34.7586Z" fill="#263238"/>
<path d="M76.088 33.1931C76.2058 33.2919 76.8062 32.7485 77.7296 32.6573C78.653 32.5661 79.3712 32.9613 79.4586 32.8397C79.5042 32.7865 79.3788 32.5927 79.0786 32.4103C78.6536 32.1718 78.1647 32.0721 77.6802 32.1253C77.1987 32.1658 76.743 32.3603 76.3806 32.6801C76.107 32.9347 76.031 33.1475 76.088 33.1931Z" fill="#263238"/>
<path d="M73.4236 40.3599C73.4236 40.3067 72.8384 40.2649 71.9036 40.2383C71.6642 40.2383 71.4362 40.2155 71.383 40.0559C71.3387 39.8156 71.3692 39.5676 71.4704 39.3453C71.6351 38.7525 71.8073 38.1318 71.9872 37.4833C72.6978 34.8233 73.188 32.6687 73.0816 32.6383C72.9752 32.6079 72.3216 34.7359 71.5996 37.3845C71.4299 38.0355 71.2677 38.6587 71.1132 39.2541C70.9919 39.5521 70.9811 39.8836 71.0828 40.1889C71.1244 40.269 71.1843 40.3382 71.2576 40.391C71.3308 40.4438 71.4154 40.4787 71.5046 40.4929C71.6382 40.5111 71.7737 40.5111 71.9074 40.4929C72.846 40.4663 73.4236 40.4131 73.4236 40.3599Z" fill="#263238"/>
<path d="M76.1971 40.7284C76.0489 40.7284 76.1439 41.7354 75.3611 42.5296C74.5783 43.3238 73.4991 43.32 73.5029 43.4606C73.5029 43.5252 73.7613 43.6316 74.2135 43.6012C74.8 43.5492 75.3498 43.2938 75.7677 42.8792C76.1719 42.476 76.4012 41.9301 76.4061 41.3592C76.4023 40.9526 76.2655 40.717 76.1971 40.7284Z" fill="#263238"/>
<path d="M75.4905 29.602C75.6045 29.8452 76.5127 29.6362 77.6071 29.6552C78.7015 29.6742 79.6059 29.887 79.7275 29.6552C79.7807 29.5412 79.6059 29.3208 79.2259 29.1118C78.7275 28.8604 78.1768 28.7302 77.6185 28.7318C77.058 28.7185 76.5026 28.841 75.9997 29.089C75.6197 29.26 75.4373 29.488 75.4905 29.602Z" fill="#263238"/>
<path d="M67.0816 31.2208C67.264 31.4146 67.8796 31.1334 68.6434 31.046C69.4072 30.9586 70.0646 31.046 70.1938 30.8142C70.247 30.7002 70.1254 30.5026 69.8138 30.3316C69.4106 30.1333 68.9579 30.0585 68.5123 30.1166C68.0668 30.1748 67.6484 30.3633 67.3096 30.6584C67.0702 30.9016 67.0018 31.1258 67.0816 31.2208Z" fill="#263238"/>
<path d="M65.7404 28.3101C65.7404 28.3101 66.9451 24.3961 68.6703 23.3359C70.7565 22.0591 71.9421 24.3695 73.9713 23.5791C76.0005 22.7887 77.9954 21.5575 80.2906 22.9635C82.8062 24.4835 81.8334 25.8477 82.2438 28.4925C83.9044 39.2237 86.1806 42.0813 86.2338 36.9399C86.2338 36.3775 87.7538 35.7999 87.7538 33.4059C87.7538 30.3279 87.4954 26.6115 86.6138 24.5139C85.8538 22.7469 84.6911 21.5879 82.6885 20.3871C79.5231 18.4871 75.4685 18.8405 72.7553 19.3915C70.0421 19.9425 65.0108 23.6285 65.7404 28.3101Z" fill="#263238"/>
<path d="M85.8267 36.8145C85.8123 36.5938 85.8427 36.3724 85.9162 36.1638C85.9896 35.9552 86.1046 35.7636 86.2541 35.6006C86.4036 35.4376 86.5845 35.3066 86.786 35.2155C86.9875 35.1243 87.2054 35.0749 87.4265 35.0703C88.5665 35.0703 89.8661 35.5795 90.0219 37.8975C90.2993 42.0091 86.1117 41.4391 86.0965 41.3175C86.0813 41.1959 85.9255 38.5397 85.8267 36.8145Z" fill="#FFBE9D"/>
<path d="M86.8872 39.7138C86.8872 39.7138 86.9632 39.7594 87.0886 39.8088C87.2639 39.8695 87.4559 39.8599 87.6244 39.7822C88.0462 39.5922 88.3654 38.8778 88.3388 38.1368C88.3253 37.784 88.2332 37.4386 88.069 37.126C88.0207 37.0001 87.9432 36.8876 87.8427 36.7977C87.7423 36.7078 87.6218 36.6432 87.4914 36.6092C87.4073 36.5957 87.3212 36.6109 87.2468 36.6522C87.1723 36.6936 87.114 36.7587 87.081 36.8372C87.0354 36.955 87.081 37.0348 87.043 37.0424C87.005 37.05 86.9518 36.9816 86.9746 36.8068C86.9901 36.704 87.0412 36.6099 87.119 36.5408C87.2233 36.4484 87.3598 36.4006 87.499 36.4078C87.6703 36.4297 87.833 36.4953 87.9715 36.5985C88.11 36.7017 88.2195 36.8389 88.2894 36.9968C88.4922 37.3434 88.6046 37.7354 88.6162 38.1368C88.6466 38.9652 88.2742 39.7708 87.6928 39.9836C87.5816 40.0212 87.4634 40.0333 87.3469 40.0188C87.2304 40.0043 87.1187 39.9637 87.0202 39.9C86.9024 39.8126 86.8758 39.7252 86.8872 39.7138Z" fill="url(#paint1_linear_319_4600)"/>
<path d="M84.953 28.88C84.491 29.3381 83.9213 29.6726 83.2962 29.8528C82.6616 29.982 81.8902 29.6856 81.7192 29.0624C81.6432 28.7812 81.6812 28.443 81.4684 28.2416C81.2556 28.0402 80.8148 28.1238 80.4766 28.196C79.8829 28.2985 79.2721 28.1964 78.744 27.9065C78.2159 27.6166 77.8018 27.156 77.5696 26.6C77.3112 27.0864 76.6006 27.1358 76.1104 26.885C75.6445 26.5805 75.2237 26.2121 74.8602 25.7906C74.4802 25.4106 73.9178 25.0952 73.382 25.2282C73.1035 25.3555 72.8116 25.4511 72.5118 25.5132C71.9684 25.5132 71.6416 24.9128 71.5086 24.3732C71.3756 23.8336 71.2464 23.2332 70.7486 22.9824C70.2508 22.7316 69.7682 22.9824 69.2818 23.0888C68.7954 23.1952 68.1418 23.1572 67.9632 22.686C67.9295 22.5585 67.9219 22.4254 67.9408 22.2948C67.9597 22.1642 68.0048 22.0388 68.0734 21.926C68.3562 21.3947 68.8108 20.9751 69.363 20.7355C69.9152 20.496 70.5323 20.4509 71.1134 20.6074C71.2477 19.905 71.5871 19.2582 72.0889 18.7486C72.5906 18.2391 73.2321 17.8896 73.9323 17.7445C74.6325 17.5993 75.3601 17.6649 76.023 17.933C76.686 18.2011 77.2546 18.6597 77.657 19.2508C78.0542 18.8132 78.5511 18.4779 79.1055 18.2732C79.6599 18.0686 80.2555 18.0007 80.8417 18.0753C81.428 18.1499 81.9876 18.3647 82.4731 18.7017C82.9586 19.0386 83.3557 19.4877 83.6306 20.0108C84.1203 19.8231 84.6546 19.7843 85.1664 19.8993C85.6781 20.0143 86.1444 20.2781 86.5066 20.6574C86.8689 21.0367 87.1109 21.5146 87.2023 22.0311C87.2936 22.5475 87.2303 23.0795 87.0202 23.56C87.7992 23.9058 88.506 24.5746 88.6048 25.422C88.7036 26.2694 87.9626 27.1966 87.119 27.056C87.3104 27.3724 87.3759 27.7492 87.3026 28.1116C87.2292 28.474 87.0224 28.7956 86.7231 29.0127C86.4237 29.2298 86.0538 29.3265 85.6865 29.2836C85.3192 29.2407 84.9815 29.0614 84.7402 28.7812" fill="#263238"/>
<path d="M70.9495 21.8577C70.9452 21.8828 70.9452 21.9085 70.9495 21.9337C70.9495 21.9831 70.9723 22.0591 70.9989 22.1503C71.0821 22.4231 71.2106 22.68 71.3789 22.9103C71.643 23.277 71.9875 23.5785 72.3859 23.7919C72.9124 24.0787 73.5175 24.188 74.1111 24.1035L74.0351 24.0161C73.9895 24.2094 73.9832 24.4099 74.0165 24.6057C74.0498 24.8015 74.122 24.9886 74.2289 25.1561C74.4489 25.5064 74.7191 25.8226 75.0307 26.0947C75.1829 26.2548 75.3524 26.3975 75.5361 26.5203C75.7438 26.633 75.9761 26.693 76.2125 26.6951C76.458 26.7069 76.7027 26.6579 76.9247 26.5525C77.1468 26.4471 77.3394 26.2886 77.4855 26.0909L77.3259 26.0643C77.4256 26.4851 77.6124 26.8804 77.8742 27.2246C78.136 27.5689 78.467 27.8545 78.8459 28.0631C79.2643 28.3123 79.7524 28.419 80.2367 28.3671C80.6909 28.3023 81.1306 28.1596 81.5363 27.9453L81.4223 27.9073C81.6835 28.3827 82.0598 28.7851 82.5167 29.0777C82.7274 29.2254 82.9684 29.3242 83.2222 29.367C83.4759 29.4097 83.736 29.3952 83.9835 29.3247C84.4082 29.1865 84.7829 28.9267 85.0613 28.5774C85.3396 28.2282 85.5092 27.8049 85.5491 27.3601L85.4579 27.4133C85.9137 27.5993 86.4198 27.6221 86.8905 27.4779C87.2411 27.3756 87.5627 27.192 87.8291 26.9421C87.9965 26.7857 88.1342 26.6003 88.2357 26.3949C88.2722 26.325 88.3002 26.251 88.3193 26.1745C88.1839 26.4465 88.0012 26.6923 87.7797 26.9003C87.5162 27.132 87.2028 27.2997 86.8639 27.3905C86.4163 27.5173 85.9387 27.4864 85.5111 27.3031L85.4313 27.2689V27.3563C85.3852 27.7683 85.2202 28.1581 84.9563 28.4779C84.6925 28.7977 84.3413 29.0339 83.9455 29.1575C83.7202 29.2197 83.4839 29.2308 83.2538 29.1901C83.0237 29.1493 82.8056 29.0577 82.6155 28.9219C82.1831 28.6432 81.8277 28.2603 81.5819 27.8085L81.5439 27.7363L81.4679 27.7743C81.079 27.9767 80.659 28.1129 80.2253 28.1771C79.7771 28.2231 79.3262 28.1217 78.9409 27.8883C78.5822 27.6898 78.2692 27.418 78.0224 27.0907C77.7756 26.7634 77.6004 26.3877 77.5083 25.9883L77.4627 25.7983L77.3487 25.9579C77.22 26.1322 77.0505 26.2722 76.855 26.3656C76.6595 26.459 76.4441 26.503 76.2277 26.4937C76.0193 26.4929 75.8144 26.4407 75.6311 26.3417C75.4576 26.2263 75.2971 26.0925 75.1523 25.9427C74.8497 25.6936 74.5836 25.4032 74.3619 25.0801C74.1681 24.7798 74.0999 24.4155 74.1719 24.0655L74.1947 23.9629H74.0921C73.526 24.0521 72.9462 23.9561 72.4391 23.6893C72.0493 23.4913 71.7081 23.2097 71.4397 22.8647C71.2194 22.5598 71.0536 22.2191 70.9495 21.8577V21.8577Z" fill="#455A64"/>
<path d="M87.4455 29.2372C87.3297 29.4868 87.1716 29.7144 86.9781 29.9098C86.5401 30.4069 86.0273 30.8325 85.4581 31.1714C84.8885 31.5167 84.2677 31.7694 83.6189 31.92C83.3555 31.9992 83.08 32.0301 82.8057 32.0112C83.694 31.7878 84.5507 31.4533 85.3555 31.0156C86.1239 30.5127 86.826 29.9152 87.4455 29.2372V29.2372Z" fill="white"/>
<path d="M87.7268 31.3196C87.5942 31.5364 87.4274 31.7302 87.2328 31.8934C86.3422 32.7428 85.2683 33.376 84.094 33.744C83.852 33.8404 83.5944 33.8919 83.334 33.896C84.1282 33.589 84.9024 33.2323 85.652 32.8282C86.3729 32.3669 87.0657 31.8632 87.7268 31.3196V31.3196Z" fill="white"/>
<path d="M74.2375 54.8606L63.7266 57.8094C62.4781 58.1544 61.3802 58.9059 60.6069 59.945L52.7979 70.8928L55.2602 73.7162L113.472 73.7428C113.472 73.7428 111.242 65.5652 110.508 63.0572C109.403 59.2572 107.902 58.197 106.534 56.8138C105.897 56.2456 105.155 55.8091 104.349 55.5294C101.932 55.0012 90.4635 52.3374 88.2823 52.3982C88.2823 52.3982 86.0365 57.741 80.7697 57.6916C75.5029 57.6422 74.2375 54.8606 74.2375 54.8606Z" fill="#455A64"/>
<path d="M98.6257 64.6343C98.6637 64.6343 98.7777 64.1403 99.1311 63.3993C99.6073 62.4422 100.233 61.5673 100.986 60.8077C101.747 60.0497 102.559 59.345 103.418 58.6987C103.784 58.442 104.13 58.1588 104.455 57.8513C104.053 58.0553 103.671 58.297 103.315 58.5733C102.42 59.1871 101.584 59.883 100.818 60.6519C100.046 61.4261 99.4229 62.3354 98.9791 63.3347C98.8483 63.6383 98.7428 63.9522 98.6637 64.2733C98.6298 64.3904 98.6169 64.5126 98.6257 64.6343V64.6343Z" fill="#263238"/>
<path d="M64.8353 71.0867C64.8897 70.6646 64.9037 70.2383 64.8771 69.8136C64.8771 69.027 64.8277 67.944 64.7365 66.747C64.6453 65.55 64.5199 64.467 64.4097 63.707C64.3705 63.2842 64.2929 62.8657 64.1779 62.4568C64.1654 62.8813 64.1908 63.3061 64.2539 63.726C64.3261 64.5734 64.4173 65.626 64.5123 66.766C64.6073 67.906 64.6605 68.9662 64.7213 69.806C64.724 70.2353 64.7621 70.6637 64.8353 71.0867V71.0867Z" fill="#263238"/>
<g opacity="0.3">
<path opacity="0.3" d="M61.2256 72.6409C62.2369 72.4071 63.1752 71.9282 63.9578 71.2463C64.695 70.5205 65.0978 69.3463 64.6456 68.4229C65.3746 69.9719 66.5358 71.2773 67.9892 72.182C69.4427 73.0867 71.1266 73.5522 72.8384 73.5225L58.3262 73.7011C59.2448 73.2286 60.2188 72.8724 61.2256 72.6409Z" fill="black"/>
</g>
<g opacity="0.3">
<path opacity="0.3" d="M97.5073 73.7162L97.7505 68.0732L93.7871 73.7086L97.5073 73.7162Z" fill="black"/>
</g>
<path d="M97.508 73.72C97.4722 72.6059 97.5013 71.4906 97.5953 70.3798C97.6253 69.2645 97.7192 68.1518 97.8766 67.0472C97.9123 68.1614 97.8832 69.2767 97.7892 70.3874C97.7592 71.5028 97.6653 72.6155 97.508 73.72V73.72Z" fill="#263238"/>
<path d="M88.3686 68.8028H119.836L121.634 67.0054H140.767C141.388 67.0054 141.983 67.252 142.422 67.691C142.861 68.13 143.108 68.7254 143.108 69.3462V72.5078H86.2596L86.1912 71.1056C86.1764 70.8098 86.2215 70.5141 86.3241 70.2362C86.4266 69.9584 86.5844 69.7042 86.7879 69.489C86.9914 69.2738 87.2364 69.102 87.508 68.9841C87.7797 68.8662 88.0725 68.8045 88.3686 68.8028V68.8028Z" fill="#D39B2C"/>
<path d="M44.0805 118.837L44.5023 76.9349C44.5133 75.761 44.9874 74.6389 45.8214 73.8127C46.6554 72.9865 47.7819 72.523 48.9559 72.5231H145.244C146.419 72.523 147.547 72.9876 148.381 73.8154C149.215 74.6432 149.689 75.7672 149.698 76.9425L150.013 118.837L154.444 137.138V143.678H151.305V162.408C151.303 165.695 149.996 168.847 147.671 171.171C145.346 173.495 142.193 174.8 138.906 174.8H53.3107C50.0221 174.8 46.8683 173.494 44.543 171.168C42.2176 168.843 40.9113 165.689 40.9113 162.401V142.88H37.7725V137.138L44.0805 118.837Z" fill="#D39B2C"/>
<path d="M44.0802 118.837C44.0802 118.837 43.9472 119.244 43.6812 120.031L42.4804 123.542L37.814 137.153C37.814 138.955 37.814 140.872 37.814 142.907L37.7646 142.861H40.9528V142.88C40.9528 146.973 40.9528 151.491 40.9528 156.404C40.9528 157.633 40.9528 158.886 40.9528 160.162C40.9133 161.46 40.9552 162.758 41.0782 164.05C41.2455 165.382 41.6428 166.676 42.2524 167.873C42.8717 169.116 43.6936 170.247 44.6844 171.22C46.7858 173.268 49.5503 174.496 52.4782 174.682C53.2382 174.735 53.9982 174.72 54.7582 174.724H61.7616H81.7534H126.761H138.921C140.979 174.701 143.001 174.179 144.814 173.204L145.472 172.801L145.802 172.6L146.114 172.368L146.733 171.904L147.307 171.38L147.596 171.118L147.858 170.833L148.383 170.255L148.854 169.632L149.086 169.32C149.162 169.214 149.222 169.1 149.291 168.99L149.697 168.321C149.823 168.093 149.929 167.854 150.043 167.618C150.266 167.145 150.46 166.659 150.625 166.163C150.94 165.159 151.127 164.12 151.179 163.069C151.217 162.545 151.214 162.013 151.214 161.481V156.674C151.214 152.383 151.214 148.051 151.214 143.678V143.579H154.451L154.352 143.678V137.18C153.904 135.322 153.418 133.315 152.931 131.305C151.898 127.049 150.875 122.824 149.922 118.883V118.86C149.819 105.309 149.72 92.1158 149.625 79.401C149.549 77.8316 149.861 76.1596 149.017 74.8106C148.63 74.1467 148.075 73.5962 147.408 73.2147C146.741 72.8331 145.986 72.6339 145.217 72.637H118.059L56.453 72.58H50.0576C49.5408 72.58 49.0202 72.58 48.5376 72.6028C48.0383 72.6552 47.5514 72.7914 47.0974 73.0056C46.1988 73.4282 45.472 74.1456 45.0378 75.0386C44.8235 75.4693 44.6835 75.9331 44.6236 76.4104C44.5704 76.8854 44.5818 77.368 44.5742 77.843C44.5742 78.8006 44.5742 79.743 44.5438 80.6626C44.5235 82.5145 44.5045 84.3055 44.4868 86.0358C44.4108 92.9556 44.3462 98.9064 44.293 103.767C44.2398 108.627 44.1904 112.393 44.16 114.946C44.16 116.219 44.1296 117.192 44.122 117.846C44.1144 118.499 44.122 118.83 44.122 118.83C44.122 118.83 44.122 118.495 44.122 117.842C44.122 117.188 44.122 116.215 44.122 114.939C44.1448 112.385 44.1752 108.619 44.217 103.759C44.2588 98.8988 44.3158 92.948 44.3804 86.0282C44.3956 84.3005 44.412 82.5107 44.4298 80.6588C44.4298 79.7354 44.4298 78.7968 44.4564 77.843C44.4564 77.368 44.4564 76.8854 44.502 76.3952C44.5996 75.6459 44.8834 74.933 45.3274 74.3216C45.7715 73.7102 46.3618 73.2199 47.0442 72.8954C47.511 72.6727 48.012 72.5301 48.5262 72.4736C49.0468 72.4356 49.556 72.4736 50.0766 72.4508H56.472H118.078H145.198C145.8 72.4463 146.397 72.5609 146.954 72.7881C147.511 73.0152 148.018 73.3504 148.445 73.7743C148.872 74.1981 149.211 74.7024 149.442 75.2578C149.673 75.8133 149.792 76.4091 149.792 77.0108C149.792 77.8012 149.792 78.5954 149.811 79.3896C149.906 92.1044 150.009 105.298 150.112 118.845V118.822C151.069 122.767 152.091 126.992 153.121 131.244C153.608 133.258 154.094 135.265 154.546 137.123V143.784H151.309L151.407 143.686V161.5C151.407 162.032 151.407 162.564 151.373 163.1C151.32 164.167 151.131 165.223 150.811 166.242C150.643 166.747 150.445 167.24 150.218 167.721C150.1 167.956 149.994 168.199 149.868 168.435L149.45 169.1C149.382 169.214 149.317 169.328 149.241 169.438L149.006 169.754L148.527 170.388L147.995 170.973L147.729 171.266L147.436 171.528L146.855 172.06L146.224 172.52L145.909 172.756L145.574 172.961L144.902 173.367C143.06 174.353 141.006 174.875 138.917 174.887H126.757H81.7496H61.7578H54.7658C54.0058 174.887 53.2458 174.887 52.4858 174.846C49.525 174.656 46.7302 173.412 44.6084 171.338C43.6086 170.352 42.778 169.208 42.1498 167.952C41.5374 166.74 41.1377 165.432 40.968 164.084C40.8466 162.787 40.806 161.484 40.8464 160.181C40.8464 158.905 40.8464 157.651 40.8464 156.423C40.8464 151.51 40.8464 146.992 40.8464 142.899L40.8958 142.952H37.7266V142.88C37.7266 140.853 37.7266 138.936 37.7266 137.127C39.7824 131.199 41.3632 126.627 42.4348 123.538L43.6546 120.031C43.9358 119.24 44.0802 118.837 44.0802 118.837Z" fill="#263238"/>
<path d="M65.4733 111.759C68.4826 108.493 68.2747 103.406 65.009 100.397C61.7433 97.3878 56.6564 97.5957 53.6471 100.861C50.6378 104.127 50.8456 109.214 54.1113 112.223C57.3771 115.233 62.464 115.025 65.4733 111.759Z" fill="#E0E0E0"/>
<path d="M67.6021 106.309C67.5904 106.267 67.584 106.223 67.5831 106.18C67.5831 106.081 67.5831 105.955 67.5565 105.8C67.5469 105.593 67.5228 105.387 67.4843 105.184C67.4447 104.906 67.3876 104.63 67.3133 104.359C67.1235 103.61 66.8211 102.894 66.4165 102.235C65.8896 101.36 65.1994 100.593 64.3835 99.978C63.3972 99.227 62.2476 98.7193 61.0281 98.4961C59.6285 98.2378 58.1853 98.3584 56.8481 98.8456C56.4927 98.9747 56.1461 99.127 55.8107 99.3016C55.4722 99.4878 55.1472 99.6973 54.8379 99.9286C54.5205 100.161 54.2196 100.415 53.9373 100.689C53.6651 100.979 53.4113 101.286 53.1773 101.608C52.6833 102.273 52.2985 103.011 52.0373 103.797C51.4952 105.424 51.4952 107.182 52.0373 108.809C52.2985 109.595 52.6833 110.334 53.1773 110.998C53.4091 111.323 53.6631 111.631 53.9373 111.921C54.2215 112.193 54.5223 112.447 54.8379 112.681C55.1472 112.913 55.4722 113.122 55.8107 113.308C56.1461 113.483 56.4927 113.635 56.8481 113.764C58.5881 114.397 60.4937 114.404 62.2386 113.786C63.9834 113.167 65.4591 111.962 66.4127 110.375C66.8167 109.716 67.119 109 67.3095 108.251C67.3842 107.978 67.4413 107.702 67.4805 107.422C67.5194 107.219 67.5436 107.013 67.5527 106.807C67.5527 106.651 67.5717 106.522 67.5793 106.427C67.5797 106.383 67.5861 106.339 67.5983 106.297C67.6026 106.34 67.6026 106.384 67.5983 106.427C67.5983 106.525 67.5983 106.651 67.5983 106.807C67.5984 107.014 67.5806 107.221 67.5451 107.426C67.5154 107.71 67.4633 107.99 67.3893 108.266C67.2109 109.027 66.9161 109.757 66.5153 110.428C65.9304 111.419 65.1419 112.274 64.2018 112.937C63.2618 113.599 62.1917 114.055 61.0623 114.274C59.6347 114.541 58.1616 114.423 56.7949 113.932C56.4306 113.8 56.0752 113.645 55.7309 113.468C55.3806 113.288 55.0429 113.085 54.7201 112.86C54.3958 112.618 54.0873 112.355 53.7967 112.073C53.5097 111.779 53.243 111.465 52.9987 111.135C52.4923 110.455 52.0984 109.698 51.8321 108.893C51.2747 107.226 51.2747 105.422 51.8321 103.755C52.0976 102.95 52.4915 102.193 52.9987 101.513C53.244 101.182 53.5105 100.867 53.7967 100.571C54.0874 100.29 54.3958 100.029 54.7201 99.788C55.0383 99.5528 55.3722 99.3395 55.7195 99.1497C56.0631 98.9709 56.4186 98.816 56.7835 98.6861C58.1498 98.1928 59.6234 98.0747 61.0509 98.344C62.179 98.5592 63.2484 99.012 64.188 99.6724C65.1275 100.333 65.9157 101.186 66.5001 102.174C66.9009 102.846 67.1957 103.575 67.3741 104.337C67.4478 104.611 67.4999 104.89 67.5299 105.173C67.5654 105.378 67.5832 105.587 67.5831 105.796C67.5831 105.955 67.5831 106.081 67.5831 106.176C67.5938 106.219 67.6001 106.264 67.6021 106.309V106.309Z" fill="#263238"/>
<g opacity="0.3">
<path opacity="0.3" d="M37.7715 137.138H154.443L150.012 118.841H44.0833L37.7715 137.138Z" fill="black"/>
</g>
<path d="M141.565 94.5972H128.155C127.651 94.5972 127.168 94.3971 126.811 94.0407C126.455 93.6844 126.255 93.2011 126.255 92.6972V79.2718C126.255 78.7679 126.455 78.2846 126.811 77.9283C127.168 77.572 127.651 77.3718 128.155 77.3718H141.565C142.069 77.3718 142.552 77.572 142.909 77.9283C143.265 78.2846 143.465 78.7679 143.465 79.2718V92.682C143.467 92.9328 143.419 93.1815 143.325 93.4138C143.23 93.6461 143.091 93.8573 142.914 94.0354C142.737 94.2134 142.527 94.3547 142.296 94.4512C142.064 94.5476 141.816 94.5972 141.565 94.5972V94.5972ZM128.155 77.7366C127.752 77.7366 127.365 77.8968 127.08 78.1818C126.795 78.4669 126.635 78.8535 126.635 79.2566V92.682C126.635 93.0852 126.795 93.4718 127.08 93.7568C127.365 94.0419 127.752 94.202 128.155 94.202H141.565C141.968 94.202 142.355 94.0419 142.64 93.7568C142.925 93.4718 143.085 93.0852 143.085 92.682V79.2718C143.085 78.8687 142.925 78.4821 142.64 78.197C142.355 77.912 141.968 77.7518 141.565 77.7518L128.155 77.7366Z" fill="#263238"/>
<path d="M142.321 87.7285C143.284 83.6108 140.727 79.4918 136.61 78.5283C132.492 77.5648 128.373 80.1217 127.41 84.2393C126.446 88.3569 129.003 92.476 133.121 93.4395C137.238 94.403 141.357 91.8461 142.321 87.7285Z" fill="#263238"/>
<path d="M72.04 81.1605H53.1464C51.7172 81.1605 50.5586 82.3191 50.5586 83.7483V88.2703C50.5586 89.6995 51.7172 90.8581 53.1464 90.8581H72.04C73.4692 90.8581 74.6278 89.6995 74.6278 88.2703V83.7483C74.6278 82.3191 73.4692 81.1605 72.04 81.1605Z" fill="#FAFAFA"/>
<path d="M72.0403 90.8542C72.2514 90.8363 72.4609 90.8033 72.6673 90.7554C73.2584 90.5983 73.7742 90.2359 74.1227 89.7332C74.3735 89.3746 74.5267 88.9568 74.5673 88.521C74.5901 88.0422 74.5673 87.5102 74.5673 86.944C74.5673 86.3778 74.5673 85.7698 74.5673 85.1276C74.5673 84.8084 74.5673 84.4778 74.5673 84.1358C74.5837 83.794 74.5543 83.4515 74.4799 83.1174C74.3877 82.7652 74.22 82.4373 73.9884 82.1565C73.7567 81.8756 73.4667 81.6485 73.1385 81.491C72.4583 81.111 71.6185 81.2668 70.7863 81.2402H65.4283H53.1505C52.6297 81.2423 52.1226 81.4067 51.6997 81.7104C51.2767 82.0142 50.959 82.4423 50.7907 82.935C50.6648 83.4312 50.6199 83.9445 50.6577 84.455V87.533C50.6196 88.0224 50.658 88.5147 50.7717 88.9922C50.9146 89.4384 51.1798 89.8355 51.5372 90.1385C51.8945 90.4415 52.3297 90.6381 52.7933 90.706C53.0215 90.7322 53.2515 90.7411 53.4811 90.7326H55.5369H58.1361H62.8063L69.5665 90.763H71.4019H71.8807C71.935 90.7573 71.9897 90.7573 72.0441 90.763H71.8807H71.4019L69.5665 90.782L62.8063 90.8162H58.1361H53.4773C53.2387 90.8248 52.9998 90.8147 52.7629 90.7858C52.2649 90.7145 51.7971 90.5045 51.4128 90.18C51.0284 89.8554 50.7431 89.4294 50.5893 88.9504C50.5135 88.7039 50.4713 88.4483 50.4639 88.1904C50.4639 87.9396 50.4639 87.6888 50.4639 87.4304V83.6988C50.4708 83.4236 50.5182 83.1509 50.6045 82.8894C50.7852 82.3573 51.1278 81.895 51.5843 81.5672C52.0409 81.2395 52.5885 81.0627 53.1505 81.0616H65.4283H70.7863H72.0213C72.4324 81.0588 72.8385 81.1525 73.2069 81.3352C73.553 81.5042 73.8584 81.7463 74.1018 82.0448C74.3452 82.3433 74.5209 82.6912 74.6167 83.0642C74.6907 83.4099 74.7188 83.7638 74.7003 84.1168C74.7003 84.4588 74.7003 84.7894 74.7003 85.1086C74.7003 85.7508 74.7003 86.3588 74.7003 86.925C74.7003 87.4912 74.7003 88.0156 74.6775 88.5096C74.6296 88.9592 74.4659 89.3886 74.2025 89.756C73.837 90.2695 73.2964 90.6317 72.6825 90.7744C72.474 90.8352 72.2572 90.8621 72.0403 90.8542V90.8542Z" fill="#263238"/>
<path d="M98.6672 117.979C110.197 117.979 119.544 108.632 119.544 97.1014C119.544 85.5713 110.197 76.2242 98.6672 76.2242C87.1371 76.2242 77.79 85.5713 77.79 97.1014C77.79 108.632 87.1371 117.979 98.6672 117.979Z" fill="#263238"/>
<path d="M98.6668 118.18C94.5 118.18 90.4267 116.944 86.9621 114.629C83.4975 112.314 80.7973 109.024 79.2029 105.174C77.6085 101.324 77.1915 97.0882 78.0047 93.0015C78.8179 88.9147 80.8247 85.1609 83.7714 82.2148C86.7181 79.2686 90.4723 77.2625 94.5591 76.45C98.646 75.6375 102.882 76.0553 106.732 77.6504C110.581 79.2455 113.871 81.9463 116.185 85.4113C118.5 88.8763 119.735 92.9498 119.734 97.1167C119.728 102.702 117.506 108.056 113.557 112.005C109.607 115.954 104.252 118.175 98.6668 118.18ZM98.6668 76.4295C94.5753 76.4295 90.5756 77.6427 87.1736 79.9159C83.7716 82.189 81.1201 85.4199 79.5543 89.2C77.9886 92.9801 77.5789 97.1396 78.3771 101.153C79.1753 105.165 81.1456 108.852 84.0388 111.745C86.9319 114.638 90.618 116.608 94.6309 117.406C98.6439 118.205 102.803 117.795 106.583 116.229C110.364 114.663 113.594 112.012 115.868 108.61C118.141 105.208 119.354 101.208 119.354 97.1167C119.352 91.6293 117.172 86.367 113.294 82.4854C109.415 78.6039 104.154 76.4203 98.6668 76.4143V76.4295Z" fill="#455A64"/>
<path d="M98.6672 116.075C94.8386 116.071 91.0971 114.932 87.9156 112.802C84.7341 110.673 82.2555 107.647 80.7932 104.109C79.3308 100.571 78.9503 96.6782 79.6998 92.9237C80.4493 89.1692 82.2952 85.7211 85.004 83.0155C87.7128 80.3099 91.163 78.4681 94.9184 77.723C98.6738 76.9779 102.566 77.363 106.102 78.8295C109.639 80.2961 112.661 82.7782 114.787 85.9622C116.914 89.1462 118.048 92.889 118.047 96.7176C118.041 101.854 115.997 106.777 112.363 110.407C108.729 114.036 103.803 116.075 98.6672 116.075V116.075ZM98.6672 77.7366C94.9147 77.7404 91.2476 78.8563 88.1291 80.9434C85.0106 83.0305 82.5807 85.9952 81.1464 89.4627C79.7122 92.9303 79.3379 96.7451 80.0709 100.425C80.8038 104.105 82.6112 107.486 85.2646 110.139C87.918 112.793 91.2984 114.6 94.9785 115.333C98.6587 116.066 102.474 115.692 105.941 114.257C109.409 112.823 112.373 110.393 114.46 107.275C116.548 104.156 117.663 100.489 117.667 96.7366C117.667 91.6975 115.665 86.8648 112.102 83.3016C108.539 79.7384 103.706 77.7366 98.6672 77.7366Z" fill="#455A64"/>
<path d="M98.6672 112.469C107.247 112.469 114.202 105.514 114.202 96.9342C114.202 88.3548 107.247 81.3998 98.6672 81.3998C90.0878 81.3998 83.1328 88.3548 83.1328 96.9342C83.1328 105.514 90.0878 112.469 98.6672 112.469Z" fill="#455A64"/>
<path d="M63.9807 110.373C66.2199 107.931 66.0549 104.135 63.6121 101.896C61.1693 99.6567 57.3737 99.8217 55.1345 102.265C52.8953 104.707 53.0604 108.503 55.5032 110.742C57.946 112.981 61.7415 112.816 63.9807 110.373Z" fill="#D39B2C"/>
<path d="M65.5622 106.309C65.5198 105.819 65.4436 105.333 65.3342 104.853C65.1923 104.296 64.9668 103.763 64.6654 103.273C64.2699 102.621 63.754 102.051 63.1454 101.593C62.4103 101.037 61.5553 100.661 60.6488 100.495C59.6089 100.306 58.5377 100.397 57.5442 100.757C57.0083 100.948 56.5047 101.22 56.0508 101.563C55.8165 101.739 55.5932 101.929 55.382 102.133C55.1744 102.349 54.9814 102.579 54.8044 102.82C54.0588 103.831 53.6565 105.053 53.6565 106.309C53.6565 107.564 54.0588 108.787 54.8044 109.797C54.9803 110.039 55.1733 110.267 55.382 110.481C55.5914 110.687 55.8149 110.877 56.0508 111.051C56.5037 111.396 57.0076 111.667 57.5442 111.857C58.8379 112.326 60.2545 112.333 61.5524 111.875C62.8503 111.417 63.9491 110.523 64.6616 109.345C64.9626 108.855 65.1881 108.322 65.3304 107.764C65.4398 107.285 65.516 106.799 65.5584 106.309C65.5584 106.309 65.5584 106.343 65.5584 106.404C65.5584 106.465 65.5584 106.575 65.5584 106.693C65.5586 106.848 65.5459 107.003 65.5204 107.156C65.4965 107.368 65.4584 107.577 65.4064 107.783C65.2731 108.353 65.054 108.898 64.7566 109.402C64.3195 110.143 63.73 110.783 63.0271 111.28C62.3242 111.777 61.5239 112.118 60.6792 112.282C59.6104 112.487 58.5063 112.399 57.4834 112.028C56.9286 111.834 56.407 111.556 55.9368 111.203C55.6932 111.024 55.4621 110.829 55.2452 110.618C55.03 110.396 54.8295 110.16 54.6448 109.911C53.8733 108.866 53.457 107.601 53.457 106.301C53.457 105.002 53.8733 103.737 54.6448 102.691C54.827 102.443 55.0264 102.208 55.2414 101.988C55.4592 101.777 55.6902 101.581 55.933 101.399C56.4032 101.047 56.9248 100.769 57.4796 100.575C58.5032 100.207 59.6068 100.12 60.6754 100.324C61.5208 100.486 62.3219 100.827 63.025 101.324C63.7282 101.821 64.3172 102.462 64.7528 103.204C65.0508 103.707 65.2699 104.253 65.4026 104.823C65.4546 105.029 65.4927 105.239 65.5166 105.45C65.5421 105.603 65.5548 105.758 65.5546 105.914C65.5546 106.028 65.5546 106.123 65.5546 106.199C65.5546 106.275 65.5622 106.309 65.5622 106.309Z" fill="#263238"/>
<path d="M62.1192 101.965C61.7819 101.802 61.4341 101.661 61.078 101.544C60.0965 101.249 59.0491 101.257 58.0722 101.566C57.3552 101.798 56.7 102.19 56.1558 102.711C55.6115 103.232 55.1923 103.87 54.9296 104.576C54.7778 104.982 54.6807 105.406 54.6408 105.838C54.6005 106.288 54.621 106.742 54.7016 107.187C54.8714 108.126 55.3095 108.995 55.963 109.69C56.6164 110.386 57.4572 110.877 58.3838 111.104C59.248 111.316 60.153 111.294 61.0058 111.04C61.7739 110.802 62.4746 110.385 63.0502 109.824C63.5474 109.331 63.9358 108.739 64.1902 108.087C64.5607 107.132 64.6349 106.087 64.403 105.089C64.3381 104.819 64.2543 104.553 64.1522 104.295C64.11 104.206 64.0744 104.115 64.0458 104.021C64.0611 104.042 64.075 104.063 64.0876 104.086C64.1104 104.128 64.1446 104.192 64.1864 104.28C64.309 104.533 64.4069 104.798 64.479 105.07C64.7431 106.084 64.6874 107.155 64.3194 108.137C64.0638 108.813 63.669 109.428 63.1604 109.942C62.568 110.527 61.8452 110.963 61.0514 111.215C60.1677 111.484 59.2279 111.51 58.3306 111.291C57.3651 111.059 56.4889 110.549 55.8112 109.824C55.1321 109.101 54.6767 108.197 54.5002 107.221C54.4209 106.758 54.4017 106.287 54.4432 105.819C54.572 104.532 55.1829 103.341 56.1532 102.486C56.6932 102.004 57.3309 101.645 58.0228 101.433C59.0252 101.127 60.0979 101.139 61.0932 101.468C61.3568 101.557 61.6113 101.672 61.8532 101.81L62.0432 101.92L62.1192 101.965Z" fill="#263238"/>
<path d="M150.013 118.837C150.013 118.894 126.297 118.94 97.0521 118.94C67.8073 118.94 44.0801 118.894 44.0801 118.837C44.0801 118.78 67.7883 118.739 97.0483 118.739C126.308 118.739 150.013 118.784 150.013 118.837Z" fill="#263238"/>
<path d="M153.285 143.701H152.992H152.137H148.85H136.763C126.556 143.663 112.443 143.534 96.8854 143.355C81.3282 143.176 67.2036 143.024 56.9854 142.956L44.9014 142.88L41.6144 142.857H40.7594H40.4668H40.7594H41.6144H44.9014H56.9892C67.196 142.891 81.3092 143.021 96.8892 143.199C112.469 143.378 126.56 143.53 136.766 143.602L148.854 143.678L152.141 143.701H152.996H153.285Z" fill="#263238"/>
<path d="M141.622 160.311H50.5928V165.235H141.622V160.311Z" fill="#263238"/>
<path d="M52.6106 162.773L45.9492 180.899H147.17L139.482 162.773H52.6106Z" fill="white"/>
<path d="M52.6113 162.773C52.6113 162.773 52.7519 162.773 53.0331 162.773H54.2871H59.1511L77.3037 162.746L139.483 162.705H139.548L139.571 162.765C142.044 168.591 144.621 174.667 147.262 180.891L147.319 181.028H140.19L45.9499 180.986H45.8701L45.8967 180.91L50.8367 167.55L52.1515 164.012C52.2997 163.632 52.4137 163.313 52.4897 163.104C52.5657 162.895 52.6075 162.803 52.6075 162.803C52.6075 162.803 52.5733 162.91 52.5011 163.119L52.1705 164.035L50.8823 167.58C49.7423 170.685 48.0931 175.214 46.0031 180.937L45.9537 180.865L140.194 180.819H147.174L147.083 180.956C144.442 174.732 141.87 168.655 139.4 162.83L139.487 162.887L77.3607 162.845L59.1891 162.819H54.3099H53.0483L52.6113 162.773Z" fill="#263238"/>
<g opacity="0.3">
<path opacity="0.3" d="M108.623 104.12C108.433 102.167 106.723 101.46 105.116 101.255C101.73 100.78 97.8959 101.749 95.1143 99.7729C94.227 99.12 93.549 98.2229 93.1631 97.1912C92.7771 96.1594 92.6998 95.0376 92.9407 93.9627C93.3207 92.3325 94.4607 90.5427 93.3549 89.1671C93.14 88.9116 92.8735 88.7044 92.5729 88.559C92.2723 88.4136 91.9444 88.3334 91.6107 88.3235C90.9765 88.3067 90.3471 88.4367 89.7715 88.7035C88.5277 89.2523 87.5163 90.2207 86.9139 91.4395C85.5123 94.3245 85.2556 97.6334 86.1957 100.7C86.7699 102.612 87.7663 104.37 89.1114 105.844C90.4565 107.319 92.1158 108.473 93.9667 109.22C95.829 109.938 97.8253 110.242 99.817 110.111C101.809 109.98 103.748 109.416 105.5 108.46C106.818 107.734 108.061 106.746 108.506 105.233C108.614 104.873 108.654 104.495 108.623 104.12V104.12Z" fill="white"/>
</g>
<g opacity="0.3">
<path opacity="0.3" d="M100.081 86.2296C100.082 86.5449 99.9888 86.8532 99.8141 87.1156C99.6395 87.3781 99.3908 87.5827 99.0997 87.7037C98.8086 87.8247 98.4882 87.8565 98.179 87.7952C97.8698 87.7339 97.5857 87.5822 97.3628 87.3593C97.1399 87.1364 96.9882 86.8523 96.9269 86.5431C96.8656 86.2339 96.8974 85.9135 97.0184 85.6224C97.1394 85.3313 97.3441 85.0827 97.6065 84.908C97.8689 84.7333 98.1773 84.6405 98.4925 84.6412C98.9138 84.6412 99.3178 84.8086 99.6157 85.1065C99.9135 85.4044 100.081 85.8084 100.081 86.2296V86.2296Z" fill="white"/>
</g>
<path d="M93.1798 110.664C93.0872 110.637 92.998 110.6 92.9138 110.553C92.7466 110.47 92.4882 110.367 92.1804 110.173C91.2918 109.69 90.4563 109.114 89.6876 108.456C88.5441 107.48 87.5494 106.342 86.735 105.078C84.6918 101.964 83.9055 98.1917 84.5348 94.5212C84.7747 93.0437 85.2278 91.6088 85.88 90.2614C86.3207 89.3517 86.8556 88.4907 87.476 87.6926C87.6888 87.4076 87.8864 87.21 88.008 87.0656C88.0686 86.9911 88.1347 86.9213 88.2056 86.8566C88.1566 86.9397 88.1007 87.0186 88.0384 87.0922C87.9282 87.2442 87.742 87.4456 87.5406 87.742C86.9505 88.5501 86.4414 89.4144 86.0206 90.3222C85.3853 91.6674 84.9463 93.0969 84.7172 94.5668C84.1138 98.192 84.8892 101.912 86.8908 104.994C87.6889 106.249 88.6613 107.384 89.7788 108.365C90.5332 109.028 91.3503 109.615 92.2184 110.12C92.5186 110.31 92.7732 110.42 92.9328 110.5C93.0204 110.546 93.1032 110.601 93.1798 110.664Z" fill="white"/>
<path d="M99.6244 111.674C99.092 111.742 98.5532 111.742 98.0208 111.674C97.4833 111.676 96.9474 111.614 96.4248 111.488C96.9585 111.421 97.4985 111.421 98.0322 111.488C98.5685 111.486 99.103 111.549 99.6244 111.674V111.674Z" fill="white"/>
<path d="M113.149 99.0432C113.107 99.0432 113.282 98.2832 113.339 97.0786C113.339 96.7708 113.358 96.4402 113.339 96.083C113.32 95.7258 113.293 95.342 113.255 94.943C113.046 93.209 112.504 91.5317 111.659 90.003C111.454 89.6572 111.279 89.319 111.062 89.0302C110.846 88.7414 110.682 88.464 110.477 88.2208C109.717 87.267 109.147 86.7692 109.174 86.7388C109.323 86.8361 109.46 86.9496 109.584 87.077C109.742 87.2135 109.892 87.3595 110.033 87.514C110.2 87.6964 110.413 87.894 110.587 88.1334C110.803 88.3903 111.006 88.6579 111.195 88.9352C111.412 89.2278 111.606 89.566 111.819 89.9118C112.693 91.4577 113.243 93.1659 113.434 94.9316C113.475 95.3103 113.498 95.6907 113.502 96.0716C113.513 96.4075 113.504 96.7438 113.475 97.0786C113.461 97.3549 113.432 97.6301 113.388 97.9032C113.365 98.1103 113.329 98.3159 113.282 98.5188C113.252 98.6971 113.208 98.8725 113.149 99.0432Z" fill="white"/>
<g opacity="0.3">
<path opacity="0.3" d="M40.9111 142.895V148.086H151.305V143.678L40.9111 142.895Z" fill="black"/>
</g>
<path d="M55.5793 162.773L50.3809 178.646H142.74L136.721 162.773H55.5793Z" fill="#455A64"/>
<path d="M139.889 162.773C139.889 162.826 120.251 162.872 96.0374 162.872C71.8238 162.872 52.1816 162.826 52.1816 162.773C52.1816 162.72 71.8124 162.674 96.0374 162.674C120.262 162.674 139.889 162.716 139.889 162.773Z" fill="#263238"/>
<path d="M138.955 83.7786L145.689 85.6368L140.714 86.8528C138.172 87.2594 137.036 88.35 136.576 89.7674L135.022 102.307L133.122 89.7674C132.888 89.1833 132.533 88.6552 132.08 88.2178C131.628 87.7803 131.088 87.4434 130.496 87.229L124.036 85.652L130.853 83.7216C131.416 83.4903 131.926 83.1465 132.351 82.7113C132.777 82.2762 133.109 81.7588 133.327 81.1908L135.026 67.0016L136.246 80.883C136.444 81.5418 136.791 82.1459 137.261 82.6481C137.731 83.1504 138.311 83.5373 138.955 83.7786V83.7786Z" fill="white"/>
<path d="M142.424 101.008L143.994 101.441L142.835 101.726C142.242 101.821 141.98 102.076 141.87 102.402L141.509 105.321L141.064 102.399C141.01 102.263 140.927 102.14 140.822 102.038C140.716 101.937 140.59 101.859 140.452 101.81L138.951 101.43L140.54 100.981C140.67 100.927 140.788 100.846 140.886 100.745C140.985 100.644 141.062 100.524 141.113 100.392L141.493 97.09L141.778 100.32C141.824 100.478 141.906 100.622 142.019 100.742C142.131 100.861 142.27 100.952 142.424 101.008V101.008Z" fill="white"/>
<path d="M119.164 68.8484C119.164 68.8484 117.804 66.9978 117.135 66.6444C116.466 66.291 115.539 66.3062 115.136 66.671L114.73 67.051C114.73 67.051 112.617 66.1048 111.598 66.8344C111.598 66.8344 109.588 65.8844 108.627 66.9712C108.627 66.9712 107.076 65.9642 106.423 66.842C105.769 67.7198 105.834 69.2094 106.153 69.9732C106.472 70.737 107.061 73.3476 107.525 73.3932C107.525 73.3932 108.76 73.5224 108.927 72.8574C109.094 72.1924 109.159 71.8656 109.159 71.8656C109.159 71.8656 109.634 74.2292 110.2 74.347C110.766 74.4648 111.853 74.4002 111.891 73.3628C111.891 73.3628 112.419 74.1456 112.936 73.9176C113.453 73.6896 114.076 73.3134 114.03 72.6712C113.985 72.029 113.966 71.3906 113.966 71.3906C113.966 71.3906 114.247 72.3254 114.726 72.1202C115.205 71.915 115.661 71.9606 115.923 71.1702C116.185 70.3798 116.835 68.8674 116.835 68.8674L119.164 68.8484Z" fill="#FFBE9D"/>
<path d="M114 71.3185C114.031 71.3185 113.905 71.0639 113.799 70.6497C113.657 70.1166 113.633 69.5588 113.73 69.0157C113.834 68.4677 114.055 67.9489 114.38 67.4957C114.631 67.1499 114.829 66.9675 114.81 66.9447C114.791 66.9219 114.555 67.0701 114.266 67.4045C113.89 67.851 113.636 68.3877 113.529 68.9619C113.423 69.5361 113.467 70.1282 113.658 70.6801C113.718 70.9177 113.836 71.1369 114 71.3185V71.3185Z" fill="url(#paint2_linear_319_4600)"/>
<path d="M111.469 66.8268C111.333 67.1217 111.242 67.4356 111.2 67.7578C111.054 68.5277 111.005 69.3129 111.055 70.0948C111.109 70.8712 111.263 71.6374 111.511 72.3748C111.592 72.6878 111.72 72.9865 111.891 73.2602C111.574 72.2184 111.359 71.1481 111.249 70.0644C111.216 68.9806 111.29 67.8962 111.469 66.8268V66.8268Z" fill="url(#paint3_linear_319_4600)"/>
<path d="M108.577 66.9827C108.431 67.8089 108.42 68.6535 108.547 69.4831C108.61 70.3199 108.812 71.1404 109.143 71.9113C109.204 71.8923 108.904 70.8169 108.763 69.4603C108.623 68.1037 108.642 66.9865 108.577 66.9827Z" fill="url(#paint4_linear_319_4600)"/>
<path d="M100.263 67.5146C100.314 67.4074 100.388 67.3129 100.48 67.2379C100.572 67.163 100.679 67.1095 100.795 67.0814C101.062 67.024 101.34 67.0313 101.604 67.1027C101.869 67.174 102.112 67.3075 102.315 67.4918C102.763 67.8905 103.148 68.3557 103.455 68.8712L100.46 68.8522C100.483 68.4 100.095 67.9402 100.263 67.5146Z" fill="#FFBE9D"/>
<path d="M40.6297 94.5098C42.2816 94.7878 43.9471 94.9781 45.6191 95.0798L49.5407 97.7398L52.0259 101.008C51.6763 101.722 50.0385 101.418 50.0385 101.418L47.6939 99.3396L45.9231 98.9596L46.6831 100.255L50.2931 102.733L51.1595 103.466C51.1595 103.466 53.4699 104.774 54.2869 105.366C55.1799 106.009 55.5105 106.544 55.2407 106.909C54.9139 107.342 54.0665 107.289 53.5725 107.061L49.1759 105.347C49.1759 105.347 47.2759 106.252 46.2955 106.18C45.3151 106.107 43.6355 105.8 43.6355 105.8L42.4955 106.476C42.3878 106.591 42.2447 106.668 42.0889 106.693C41.7171 106.778 41.3305 106.773 40.9606 106.68C40.5907 106.587 40.2482 106.408 39.9609 106.157L37.2667 103.877C36.6739 103.379 35.6251 101.889 34.7055 100.499C34.1428 99.6536 33.7816 98.6906 33.6498 97.6839C33.5181 96.6772 33.6192 95.6537 33.9455 94.6922C34.221 93.9377 34.6588 93.2528 35.2281 92.6861C35.7974 92.1195 36.4843 91.6848 37.2401 91.4128L44.3613 81.7532L44.3233 95" fill="#FFBE9D"/>
<path d="M44.9961 103.618C45.5874 104.104 46.2585 104.483 46.9797 104.739C47.675 105.061 48.4207 105.259 49.1837 105.325C49.1837 105.264 48.2147 105.017 47.0595 104.542C45.9043 104.067 45.0303 103.565 44.9961 103.618Z" fill="url(#paint5_linear_319_4600)"/>
<path d="M42.3815 105.26C42.3473 105.321 42.8679 105.583 43.5215 105.754C43.9182 105.898 44.3384 105.966 44.7603 105.955C44.3879 105.761 43.9882 105.624 43.5747 105.549C43.1854 105.42 42.7864 105.324 42.3815 105.26V105.26Z" fill="url(#paint6_linear_319_4600)"/>
<path d="M52.1175 103.976C51.775 103.708 51.4172 103.461 51.0459 103.235C50.3809 102.782 49.4727 102.148 48.4923 101.411C48.0021 101.031 47.5385 100.689 47.1243 100.358C46.7492 100.086 46.4196 99.7566 46.1477 99.3814C45.9125 99.0257 45.7906 98.607 45.7981 98.1806C45.745 98.289 45.7239 98.4103 45.7373 98.5302C45.7498 98.8601 45.8481 99.1809 46.0223 99.4612C46.2845 99.8649 46.615 100.22 46.9989 100.51C47.4131 100.848 47.8729 101.213 48.3669 101.582C49.3511 102.319 50.2669 102.942 50.9661 103.36C51.3257 103.608 51.7119 103.814 52.1175 103.976V103.976Z" fill="url(#paint7_linear_319_4600)"/>
<path d="M46.2344 98.9444C46.2344 98.9786 46.5536 99.0318 47.0362 99.2218C47.6644 99.4754 48.2289 99.8647 48.6892 100.362C48.9264 100.662 49.1924 100.938 49.4834 101.186C49.7446 101.384 50.0572 101.503 50.384 101.528C50.6719 101.572 50.9662 101.547 51.2428 101.456C51.2428 101.418 50.9122 101.456 50.403 101.376C50.1111 101.336 49.8354 101.218 49.605 101.034C49.3304 100.783 49.0763 100.509 48.845 100.217C48.3649 99.6942 47.7594 99.3018 47.0856 99.0774C46.8163 98.9668 46.5246 98.9212 46.2344 98.9444V98.9444Z" fill="url(#paint8_linear_319_4600)"/>
<path d="M45.2207 95.0608C45.2207 94.9962 43.4499 94.8936 41.3257 94.5364C39.2015 94.1792 37.5257 93.7346 37.5029 93.8182C37.8397 93.9606 38.188 94.0737 38.5441 94.1564C39.2129 94.3388 40.1705 94.563 41.2535 94.7416C42.5602 94.9932 43.8906 95.1003 45.2207 95.0608Z" fill="url(#paint9_linear_319_4600)"/>
<defs>
<linearGradient id="paint0_linear_319_4600" x1="80.0529" y1="49.1417" x2="78.1182" y2="53.7319" gradientUnits="userSpaceOnUse">
<stop stop-color="#F1711B"/>
<stop offset="1" stop-color="#F58A1B"/>
</linearGradient>
<linearGradient id="paint1_linear_319_4600" x1="88.3146" y1="36.8593" x2="86.3213" y2="38.2134" gradientUnits="userSpaceOnUse">
<stop stop-color="#F1711B"/>
<stop offset="1" stop-color="#F58A1B"/>
</linearGradient>
<linearGradient id="paint2_linear_319_4600" x1="114.577" y1="67.4894" x2="112.683" y2="68.3104" gradientUnits="userSpaceOnUse">
<stop stop-color="#F1711B"/>
<stop offset="1" stop-color="#F58A1B"/>
</linearGradient>
<linearGradient id="paint3_linear_319_4600" x1="111.742" y1="67.631" x2="110.354" y2="67.8926" gradientUnits="userSpaceOnUse">
<stop stop-color="#F1711B"/>
<stop offset="1" stop-color="#F58A1B"/>
</linearGradient>
<linearGradient id="paint4_linear_319_4600" x1="109.03" y1="67.5987" x2="107.911" y2="67.8217" gradientUnits="userSpaceOnUse">
<stop stop-color="#F1711B"/>
<stop offset="1" stop-color="#F58A1B"/>
</linearGradient>
<linearGradient id="paint5_linear_319_4600" x1="48.4509" y1="103.828" x2="47.9117" y2="105.7" gradientUnits="userSpaceOnUse">
<stop stop-color="#F1711B"/>
<stop offset="1" stop-color="#F58A1B"/>
</linearGradient>
<linearGradient id="paint6_linear_319_4600" x1="44.3437" y1="105.347" x2="44.1803" y2="106.139" gradientUnits="userSpaceOnUse">
<stop stop-color="#F1711B"/>
<stop offset="1" stop-color="#F58A1B"/>
</linearGradient>
<linearGradient id="paint7_linear_319_4600" x1="51.0003" y1="98.905" x2="47.8809" y2="103.778" gradientUnits="userSpaceOnUse">
<stop stop-color="#F1711B"/>
<stop offset="1" stop-color="#F58A1B"/>
</linearGradient>
<linearGradient id="paint8_linear_319_4600" x1="50.3663" y1="99.2649" x2="49.3639" y2="101.991" gradientUnits="userSpaceOnUse">
<stop stop-color="#F1711B"/>
<stop offset="1" stop-color="#F58A1B"/>
</linearGradient>
<linearGradient id="paint9_linear_319_4600" x1="43.8701" y1="93.9656" x2="43.7002" y2="95.4406" gradientUnits="userSpaceOnUse">
<stop stop-color="#F1711B"/>
<stop offset="1" stop-color="#F58A1B"/>
</linearGradient>
</defs>
</svg>
